animation{
  name = "shield_brandish",
  src_image = "hero/shield_1_above.png",
  frame_delay = 50,
  directions = {
    { x = 0, y = 96, frame_width = 24, frame_height = 24, origin_x = 12, origin_y = 21, num_frames = 3 },
    { x = 0, y = 120, frame_width = 24, frame_height = 24, origin_x = 12, origin_y = 21, num_frames = 3 },
    { x = 72, y = 96, frame_width = 24, frame_height = 24, origin_x = 12, origin_y = 21, num_frames = 3 },
    { x = 72, y = 120, frame_width = 24, frame_height = 24, origin_x = 12, origin_y = 21, num_frames = 3 },
  },
}
animation{
  name = "shield_stopped",
  src_image = "hero/shield_1_above.png",
  directions = {
    { x = 72, y = 0, frame_width = 24, frame_height = 24, origin_x = 12, origin_y = 21 },
    { x = 72, y = 24, frame_width = 24, frame_height = 24, origin_x = 12, origin_y = 21 },
    { x = 72, y = 48, frame_width = 24, frame_height = 24, origin_x = 12, origin_y = 21 },
    { x = 72, y = 72, frame_width = 24, frame_height = 24, origin_x = 12, origin_y = 21 },
  },
}
animation{
  name = "shield_walking",
  src_image = "hero/shield_1_above.png",
  frame_delay = 70,
  frame_to_loop_on = 0,
  directions = {
    { x = 0, y = 0, frame_width = 24, frame_height = 24, origin_x = 12, origin_y = 21, num_frames = 8 },
    { x = 0, y = 24, frame_width = 24, frame_height = 24, origin_x = 12, origin_y = 21, num_frames = 8 },
    { x = 0, y = 48, frame_width = 24, frame_height = 24, origin_x = 12, origin_y = 21, num_frames = 8 },
    { x = 0, y = 72, frame_width = 24, frame_height = 24, origin_x = 12, origin_y = 21, num_frames = 8 },
  },
}